<?xml version="1.0" encoding="utf-8"?>
<!-- Generator: Adobe Illustrator 15.1.0, SVG Export Plug-In . SVG Version: 6.00 Build 0)  -->
<!DOCTYPE svg PUBLIC "-//W3C//DTD SVG 1.1//EN" "http://www.w3.org/Graphics/SVG/1.1/DTD/svg11.dtd">
<svg version="1.1" id="Layer_1" xmlns="http://www.w3.org/2000/svg" xmlns:xlink="http://www.w3.org/1999/xlink" x="0px" y="0px"
	 width="400px" height="95.667px" viewBox="0 0 400 95.667" enable-background="new 0 0 400 95.667" xml:space="preserve">
<g>
	<path d="M180.599,23.934V1.315L159.32,4.073v19.861h-8.281V42.65h8.281c0,13.851,0,40.492,0,51.009h21.279V42.65h15.427V23.934
		H180.599z"/>
	<path d="M64.304,57.505c6.482-5.229,10.642-12.383,10.642-21.363v-3.906c0-15.769-12.782-27.355-28.543-27.355L1.328,4.706
		L1.355,93.19l21.29,0.168V63.325h21.883l14.265,30.033H83.71L64.304,57.505z M53.191,35.069c0,6.279-5.092,9.843-11.371,9.843
		H22.646V23.663H41.82c6.279,0,11.371,4.411,11.371,10.692V35.069z"/>
	<path d="M303.484,23.564h-11.266v-22.6l-20.817,2.757l-0.005,89.637h32.088c15.768,0,28.545-12.104,28.545-27.866V52.109
		C332.029,36.345,319.252,23.564,303.484,23.564z M311.631,63.701c0,6.639-4.48,10.578-11.116,10.578h-8.228V42.657h8.228
		c6.636,0,11.116,3.943,11.116,10.581V63.701z"/>
	<path d="M241.53,23.934V64.2c0,6.636-2.413,11.122-9.053,11.122h-0.329c-6.634,0-9.054-4.486-9.054-11.122V23.934h-21.003v41.803
		c0,15.766,6.9,28.549,27.868,28.549h4.028c22.084,0,28.551-12.783,28.551-28.549V23.934H241.53z"/>
	<path d="M123.148,23.934V64.2c0,6.636-2.416,11.122-9.054,11.122h-0.329c-6.634,0-9.052-4.486-9.052-11.122V23.934H83.71v41.803
		c0,15.766,6.896,28.549,27.864,28.549h4.031c22.079,0,28.548-12.783,28.548-28.549V23.934H123.148z"/>
	<g>
		<path d="M385.309,69.982c0,0-6.145,7.53-16.948,6.686c-6.731-0.524-10.722-3.944-10.722-10.58v-2.313h41.203V54.82v-0.464v-2.53
			c0-15.375-11.266-28.862-30.429-28.862c-19.157,0-30.45,12.809-30.45,28.185v3.207v0.464v10.702
			c0,15.385,11.269,28.871,30.429,28.871c21.657,0,30.915-15.104,30.915-15.104L385.309,69.982z M357.639,47.891
			c0-6.48,4.131-10.381,10.28-10.561h0.531c6.4,0,10.721,3.942,10.721,10.577v0.586h-21.532V47.891z"/>
	</g>
</g>
</svg>
